{
  "type": "object",
  "required" : [
    "id",
    "url",
    "primary",
    "enabled",
    "current",
    "files_max_capacity",
    "repos_max_capacity",
    "verification_max_capacity",
    "clone_protocol",
    "_links"
  ],
  "properties" : {
    "id": { "type": "integer" },
    "url": { "type": ["string", "null"] },
    "primary": { "type": "boolean" },
    "enabled": { "type": "boolean" },
    "current": { "type": "boolean" },
    "files_max_capacity": { "type": "integer" },
    "repos_max_capacity": { "type": "integer" },
    "verification_max_capacity": { "type": "integer" },
    "clone_protocol": { "type": ["string"] },
    "web_edit_url": { "type": "string" },
    "_links": {
      "type": "object",
      "required": ["self", "repair"],
      "properties" : {
        "self": { "type": "string" },
        "status": { "type": "string" },
        "repair": { "type": "string" }
      },
      "additionalProperties": false
    }
  },
  "additionalProperties": false
}
